{
  "images" : [
    {
      "resizing" : {
        "mode" : "9-part",
        "center" : {
          "mode" : "tile",
          "width" : 1,
          "height" : 1
        },
        "cap-insets" : {
          "bottom" : 13,
          "top" : 10,
          "right" : 13,
          "left" : 10
        }
      },
      "idiom" : "universal",
      "filename" : "ic_text_box_grey_select_package_screen.png",
      "scale" : "1x"
    },
    {
      "resizing" : {
        "mode" : "9-part",
        "center" : {
          "mode" : "tile",
          "width" : 1,
          "height" : 1
        },
        "cap-insets" : {
          "bottom" : 19,
          "top" : 14,
          "right" : 16,
          "left" : 16
        }
      },
      "idiom" : "universal",
      "filename" : "ic_text_box_grey_select_package_screen@2x.png",
      "scale" : "2x"
    },
    {
      "resizing" : {
        "mode" : "9-part",
        "center" : {
          "mode" : "tile",
          "width" : 1,
          "height" : 1
        },
        "cap-insets" : {
          "bottom" : 27,
          "top" : 26,
          "right" : 28,
          "left" : 25
        }
      },
      "idiom" : "universal",
      "filename" : "ic_text_box_grey_select_package_screen@3x.png",
      "scale" : "3x"
    }
  ],
  "info" : {
    "version" : 1,
    "author" : "xcode"
  }
}